<svg width="146" height="117" viewBox="0 0 146 117" fill="none" xmlns="http://www.w3.org/2000/svg">
<path d="M111.5 98.5461C113.9 115.346 135.167 116.213 145.5 114.546V10.0459C137.1 2.04587 123.333 0.71254 117.5 1.04587C93.9 4.64587 91 22.2127 92.5 30.5461C80.9 18.5461 75.3333 27.8793 74 34.046C46 14.4459 40.3333 36.2127 41 49.5461C6.5 30.546 1 58.5461 1 58.5461C1 89.0461 34.5 86.0461 34.5 86.0461C31.7 98.8461 42.3333 97.7127 48 95.5461C60.8 119.146 83 107.379 92.5 98.5461C96.1 104.146 106.667 100.879 111.5 98.5461Z" stroke="#BDBDBD" stroke-width="2"/>
</svg>
