{
    "key": "group_61269ac1586af",
    "title": "Post Type : Video",
    "fields": [
        {
            "key": "field_61269ad16062e",
            "label": "Video",
            "name": "video",
            "type": "textarea",
            "instructions": "",
            "required": 0,
            "conditional_logic": 0,
            "wrapper": {
                "width": "",
                "class": "",
                "id": ""
            },
            "default_value": "",
            "placeholder": "",
            "maxlength": "",
            "rows": "",
            "new_lines": "",
            "wpml_cf_preferences": 2
        }
    ],
    "location": [
        [
            {
                "param": "post_type",
                "operator": "==",
                "value": "videos"
            }
        ]
    ],
    "menu_order": 0,
    "position": "normal",
    "style": "default",
    "label_placement": "top",
    "instruction_placement": "label",
    "hide_on_screen": [
        "the_content"
    ],
    "active": true,
    "description": "",
    "modified": 1629921211
}