{
    "key": "group_600c07f1126b1",
    "title": "Social Menu",
    "fields": [
        {
            "key": "field_600c0835a027b",
            "label": "Menu List",
            "name": "social_menu_list",
            "type": "repeater",
            "instructions": "Use class names from <a href=\"https:\/\/fontawesome.com\/icons?d=gallery\" target=\"_blank\">here<\/a>",
            "required": 0,
            "conditional_logic": 0,
            "wrapper": {
                "width": "",
                "class": "",
                "id": ""
            },
            "wpml_cf_preferences": 1,
            "collapsed": "",
            "min": 0,
            "max": 0,
            "layout": "table",
            "button_label": "Add Item",
            "sub_fields": [
                {
                    "key": "field_600c0862a027c",
                    "label": "Icon Class",
                    "name": "icon_class",
                    "type": "text",
                    "instructions": "",
                    "required": 0,
                    "conditional_logic": 0,
                    "wrapper": {
                        "width": "50",
                        "class": "",
                        "id": ""
                    },
                    "wpml_cf_preferences": 2,
                    "default_value": "",
                    "placeholder": "",
                    "prepend": "",
                    "append": "",
                    "maxlength": ""
                },
                {
                    "key": "field_600c0879a027d",
                    "label": "Link",
                    "name": "social_link",
                    "type": "url",
                    "instructions": "",
                    "required": 0,
                    "conditional_logic": 0,
                    "wrapper": {
                        "width": "",
                        "class": "",
                        "id": ""
                    },
                    "default_value": "",
                    "placeholder": "",
                    "wpml_cf_preferences": 2
                }
            ]
        }
    ],
    "location": [
        [
            {
                "param": "options_page",
                "operator": "==",
                "value": "social_menu"
            }
        ]
    ],
    "menu_order": 0,
    "position": "normal",
    "style": "default",
    "label_placement": "top",
    "instruction_placement": "label",
    "hide_on_screen": "",
    "active": true,
    "description": "",
    "modified": 1613500873
}